{
  "items": [
    {
      "type": "divider",
      "title": "Getting Started"
    },
    {
      "type": "item",
      "title": "Start Here",
      "uri": "docs/GetStarted/Start-Here.md"
    },
    {
      "type": "item",
      "title": "Create a Yawave Account",
      "uri": "docs/GetStarted/Create-a-Yawave-Account.md"
    },
    {
      "type": "divider",
      "title": "Contact"
    },
    {
      "type": "item",
      "title": "Contacts",
      "uri": "docs/Contact/Contacts.md"
    },
    {
      "type": "item",
      "title": "Dimensions",
      "uri": "docs/Contact/Dimensions.md"
    },
    {
      "type": "divider",
      "title": "Collect"
    },
    {
      "type": "item",
      "title": "Collections",
      "uri": "docs/Collect/Collections.md"
    },
    {
      "type": "divider",
      "title": "Publish"
    },
    {
      "type": "item",
      "title": "Publications",
      "uri": "docs/Publish/Publications.md"
    },
    {
      "type": "item",
      "title": "Portals",
      "uri": "docs/Publish/Portals.md"
    },
    {
      "type": "item",
      "title": "Calendar",
      "uri": "docs/Publish/Calendar.md"
    },
    {
      "type": "item",
      "title": "Live-Blogs",
      "uri": "docs/Publish/Live-Blogs.md"
    },
    {
      "type": "item",
      "title": "Pages",
      "uri": "docs/Publish/Pages.md"
    },
    {
      "type": "divider",
      "title": "Engage"
    },
    {
      "type": "item",
      "title": "Feedbacks",
      "uri": "docs/Engage/Feedbacks.md"
    },
    {
      "type": "item",
      "title": "Shares",
      "uri": "docs/Engage/Shares.md"
    },
    {
      "type": "item",
      "title": "Payments",
      "uri": "docs/Engage/Payments.md"
    },
    {
      "type": "item",
      "title": "Forms",
      "uri": "docs/Engage/Forms.md"
    },
    {
      "type": "divider",
      "title": "Analyse"
    },
    {
      "type": "item",
      "title": "Activities",
      "uri": "docs/Analyse/Activities.md"
    },
    {
      "type": "item",
      "title": "Journeys",
      "uri": "docs/Analyse/Journeys.md"
    },
    {
      "type": "divider",
      "title": "Automate"
    },
    {
      "type": "item",
      "title": "Automations",
      "uri": "docs/Automate/Automations.md"
    },
    {
      "type": "divider",
      "title": "Integrate"
    },
    {
      "type": "item",
      "title": "Connections",
      "uri": "docs/Integrate/Connections.md"
    },
    {
      "type": "divider",
      "title": "Administrate"
    },
     {
      "type": "group",
      "title": "Branding",
      "items": [
        {
          "type": "item",
          "title": "Configuring a Brand",
          "uri": "docs/Administrate/Branding/Configuring-a-Brand.md"
        },
        {
          "type": "item",
          "title": "Configuring a Theme",
          "uri": "docs/Administrate/Branding/Configuring-a-theme.md"
    }
      ]
    },
    {
      "type": "item",
      "title": "Templates",
      "uri": "docs/Administrate/Templates.md"
    },
    {
      "type": "group",
      "title": "Tools",
      "items": [
        {
          "type": "item",
          "title": "Tools Overview",
          "uri": "docs/Administrate/Tools/ToolsOverview.md"
        },
        {
          "type": "item",
          "title": "Share Tools",
          "uri": "docs/Administrate/Tools/ShareTools.md"
    }
      ]
    },
    {
      "type": "group",
      "title": "Settings",
      "items": [
        {
      "type": "item",
      "title": "Configuring the Compliance Settings",
      "uri": "docs/Administrate/Settings/Configuring-the-Compliance-Settings.md"
    }
      ]
    },
    {
      "type": "item",
      "title": "Team",
      "uri": "docs/Administrate/Team.md"
    },
    {
      "type": "item",
      "title": "Classify",
      "uri": "docs/Administrate/Classify.md"
    },
    {
      "type": "item",
      "title": "Branding",
      "uri": "docs/Administrate/Branding.md"
    },
    {
      "type": "item",
      "title": "Branding",
      "uri": "docs/test.md"
    },
    {
      "type": "divider",
      "title": "Develop"
    },
    {
      "type": "item",
      "title": "Libraries and SDKs",
      "uri": "docs/Develop/SDKs.md"
    },
    {
      "type": "item",
      "title": "Plugins and Extensions",
      "uri": "docs/Develop/PluginsExtensions.md"
    },
    {
      "type": "item",
      "title": "API Reference",
      "uri": "reference/yawave-yawave_api.yaml"
    }
  ]
}
